{
  "Id": "GentleReapers",
  "DisplayName": "Gentle Reapers",
  "Author": "Oldark",
  "Version": "0.1",
  "Requires": [ ],
  "Enable": true,
  "AssemblyName": "GentleReapers.dll",
  "EntryMethod": "Gentle_Reapers.MainPatcher.Patch",
  "Config": {}
}
